<?xml version="1.0" standalone="no"?>
<!DOCTYPE svg PUBLIC "-//W3C//DTD SVG 20010904//EN"
 "http://www.w3.org/TR/2001/REC-SVG-20010904/DTD/svg10.dtd">
<svg version="1.0" xmlns="http://www.w3.org/2000/svg"
 width="512.000000pt" height="512.000000pt" viewBox="0 0 512.000000 512.000000"
 preserveAspectRatio="xMidYMid meet">

<g transform="translate(0.000000,512.000000) scale(0.100000,-0.100000)"
fill="#000000" stroke="none">
<path d="M690 2560 l0 -2560 1280 0 1280 0 0 640 0 640 -22 4 c-13 3 -59 10
-103 16 -100 15 -258 66 -356 115 -244 124 -444 321 -567 563 -74 144 -112
270 -137 445 l-6 47 -565 0 -566 0 -29 29 c-39 40 -39 82 0 122 l29 29 565 0
564 0 12 78 c68 430 311 775 680 966 144 74 251 107 469 142 l32 5 0 639 0
640 -1280 0 -1280 0 0 -2560z m2344 1524 c34 -35 35 -83 2 -121 l-24 -28
-1047 0 -1047 0 -24 28 c-33 38 -32 86 2 121 l27 26 1042 0 1042 0 27 -26z m2
-2927 c33 -38 32 -86 -2 -121 l-27 -26 -1042 0 -1042 0 -27 26 c-43 44 -29
121 28 144 11 5 484 8 1054 7 l1034 -2 24 -28z"/>
<path d="M3219 3649 c-418 -44 -786 -338 -918 -734 -59 -176 -74 -350 -46
-525 75 -457 411 -808 870 -905 94 -20 297 -23 398 -6 80 14 232 63 302 99
148 74 337 239 419 365 126 194 186 394 186 624 0 303 -119 577 -341 788 -180
171 -395 269 -644 294 -118 12 -116 12 -226 0z m-154 -689 l270 -269 271 269
c254 254 273 270 307 270 54 0 92 -36 92 -89 0 -41 -4 -45 -270 -311 l-270
-270 273 -273 c287 -288 291 -293 260 -350 -18 -34 -40 -46 -82 -47 -38 0 -47
8 -310 270 l-271 269 -270 -269 c-244 -243 -274 -270 -304 -270 -44 0 -70 16
-86 52 -24 59 -10 78 267 355 l263 263 -268 268 c-265 266 -267 269 -267 311
0 54 36 91 89 91 33 0 53 -18 306 -270z"/>
</g>
</svg>
